%YAML 1.1
%TAG !u! tag:unity3d.com,2011:
--- !u!29 &1
OcclusionCullingSettings:
  m_ObjectHideFlags: 0
  serializedVersion: 2
  m_OcclusionBakeSettings:
    smallestOccluder: 5
    smallestHole: 0.25
    backfaceThreshold: 100
  m_SceneGUID: 00000000000000000000000000000000
  m_OcclusionCullingData: {fileID: 0}
--- !u!104 &2
RenderSettings:
  m_ObjectHideFlags: 0
  serializedVersion: 8
  m_Fog: 1
  m_FogColor: {r: 0, g: 0, b: 0, a: 0}
  m_FogMode: 3
  m_FogDensity: 0.01
  m_LinearFogStart: 0
  m_LinearFogEnd: 300
  m_AmbientSkyColor: {r: 0.2, g: 0.2, b: 0.2, a: 1}
  m_AmbientEquatorColor: {r: 0.2, g: 0.2, b: 0.2, a: 1}
  m_AmbientGroundColor: {r: 0.2, g: 0.2, b: 0.2, a: 1}
  m_AmbientIntensity: 1
  m_AmbientMode: 3
  m_SubtractiveShadowColor: {r: 0.42, g: 0.478, b: 0.627, a: 1}
  m_SkyboxMaterial: {fileID: 0}
  m_HaloStrength: 0.5
  m_FlareStrength: 1
  m_FlareFadeSpeed: 3
  m_HaloTexture: {fileID: 0}
  m_SpotCookie: {fileID: 10001, guid: 0000000000000000e000000000000000, type: 0}
  m_DefaultReflectionMode: 0
  m_DefaultReflectionResolution: 128
  m_ReflectionBounces: 1
  m_ReflectionIntensity: 1
  m_CustomReflection: {fileID: 0}
  m_Sun: {fileID: 0}
  m_IndirectSpecularColor: {r: 0, g: 0, b: 0, a: 1}
--- !u!157 &4
LightmapSettings:
  m_ObjectHideFlags: 0
  serializedVersion: 11
  m_GIWorkflowMode: 1
  m_GISettings:
    serializedVersion: 2
    m_BounceScale: 1
    m_IndirectOutputScale: 1
    m_AlbedoBoost: 1
    m_TemporalCoherenceThreshold: 1
    m_EnvironmentLightingMode: 0
    m_EnableBakedLightmaps: 1
    m_EnableRealtimeLightmaps: 0
  m_LightmapEditorSettings:
    serializedVersion: 9
    m_Resolution: 1
    m_BakeResolution: 50
    m_TextureWidth: 1024
    m_TextureHeight: 1024
    m_AO: 0
    m_AOMaxDistance: 1
    m_CompAOExponent: 0
    m_CompAOExponentDirect: 0
    m_Padding: 2
    m_LightmapParameters: {fileID: 0}
    m_LightmapsBakeMode: 1
    m_TextureCompression: 0
    m_FinalGather: 0
    m_FinalGatherFiltering: 1
    m_FinalGatherRayCount: 1024
    m_ReflectionCompression: 2
    m_MixedBakeMode: 1
    m_BakeBackend: 0
    m_PVRSampling: 1
    m_PVRDirectSampleCount: 32
    m_PVRSampleCount: 500
    m_PVRBounces: 2
    m_PVRFiltering: 0
    m_PVRFilteringMode: 1
    m_PVRCulling: 1
    m_PVRFilteringGaussRadiusDirect: 1
    m_PVRFilteringGaussRadiusIndirect: 5
    m_PVRFilteringGaussRadiusAO: 2
    m_PVRFilteringAtrousColorSigma: 1
    m_PVRFilteringAtrousNormalSigma: 1
    m_PVRFilteringAtrousPositionSigma: 1
  m_LightingDataAsset: {fileID: 0}
  m_UseShadowmask: 1
--- !u!196 &5
NavMeshSettings:
  serializedVersion: 2
  m_ObjectHideFlags: 0
  m_BuildSettings:
    serializedVersion: 2
    agentTypeID: 0
    agentRadius: 0.5
    agentHeight: 2
    agentSlope: 45
    agentClimb: 0.4
    ledgeDropHeight: 0
    maxJumpAcrossDistance: 0
    minRegionArea: 2
    manualCellSize: 0
    cellSize: 0.16666666
    manualTileSize: 0
    tileSize: 256
    accuratePlacement: 0
  m_NavMeshData: {fileID: 0}
--- !u!1001 &144675934
Prefab:
  m_ObjectHideFlags: 0
  serializedVersion: 2
  m_Modification:
    m_TransformParent: {fileID: 1494325979}
    m_Modifications:
    - target: {fileID: 471364, guid: f58a667c8217aaf42b28e20ef609767b, type: 2}
      propertyPath: m_LocalPosition.x
      value: -84.7
      objectReference: {fileID: 0}
    - target: {fileID: 471364, guid: f58a667c8217aaf42b28e20ef609767b, type: 2}
      propertyPath: m_LocalPosition.y
      value: -14
      objectReference: {fileID: 0}
    - target: {fileID: 471364, guid: f58a667c8217aaf42b28e20ef609767b, type: 2}
      propertyPath: m_LocalPosition.z
      value: -17.551758
      objectReference: {fileID: 0}
    - target: {fileID: 471364, guid: f58a667c8217aaf42b28e20ef609767b, type: 2}
      propertyPath: m_LocalRotation.x
      value: 0
      objectReference: {fileID: 0}
    - target: {fileID: 471364, guid: f58a667c8217aaf42b28e20ef609767b, type: 2}
      propertyPath: m_LocalRotation.y
      value: 0
      objectReference: {fileID: 0}
    - target: {fileID: 471364, guid: f58a667c8217aaf42b28e20ef609767b, type: 2}
      propertyPath: m_LocalRotation.z
      value: 0
      objectReference: {fileID: 0}
    - target: {fileID: 471364, guid: f58a667c8217aaf42b28e20ef609767b, type: 2}
      propertyPath: m_LocalRotation.w
      value: 1
      objectReference: {fileID: 0}
    - target: {fileID: 471364, guid: f58a667c8217aaf42b28e20ef609767b, type: 2}
      propertyPath: m_RootOrder
      value: 2
      objectReference: {fileID: 0}
    - target: {fileID: 145898, guid: f58a667c8217aaf42b28e20ef609767b, type: 2}
      propertyPath: m_Name
      value: Platform1000x100 (6)
      objectReference: {fileID: 0}
    m_RemovedComponents: []
  m_ParentPrefab: {fileID: 100100000, guid: f58a667c8217aaf42b28e20ef609767b, type: 2}
  m_IsPrefabParent: 0
--- !u!1 &213527044
GameObject:
  m_ObjectHideFlags: 0
  m_PrefabParentObject: {fileID: 0}
  m_PrefabInternal: {fileID: 0}
  serializedVersion: 5
  m_Component:
  - component: {fileID: 213527045}
  - component: {fileID: 213527046}
  m_Layer: 0
  m_Name: LevelManager
  m_TagString: Untagged
  m_Icon: {fileID: 5721338939258241955, guid: 0000000000000000d000000000000000, type: 0}
  m_NavMeshLayer: 0
  m_StaticEditorFlags: 0
  m_IsActive: 1
--- !u!4 &213527045
Transform:
  m_ObjectHideFlags: 0
  m_PrefabParentObject: {fileID: 0}
  m_PrefabInternal: {fileID: 0}
  m_GameObject: {fileID: 213527044}
  m_LocalRotation: {x: 0, y: 0, z: 0, w: 1}
  m_LocalPosition: {x: -106.2, y: 5.4, z: 0}
  m_LocalScale: {x: 1, y: 1, z: 1}
  m_Children: []
  m_Father: {fileID: 0}
  m_RootOrder: 2
  m_LocalEulerAnglesHint: {x: 0, y: 0, z: 0}
--- !u!114 &213527046
MonoBehaviour:
  m_ObjectHideFlags: 0
  m_PrefabParentObject: {fileID: 0}
  m_PrefabInternal: {fileID: 0}
  m_GameObject: {fileID: 213527044}
  m_Enabled: 1
  m_EditorHideFlags: 0
  m_Script: {fileID: 11500000, guid: 88fcac034e6398d42ac254095d9b2d18, type: 3}
  m_Name: 
  m_EditorClassIdentifier: 
  PlayerPrefabs:
  - {fileID: 11485350, guid: eaa0c32df7aae4121befb930bd401b9a, type: 2}
  AutoAttributePlayerIDs: 1
  DebugSpawn: {fileID: 1132044354}
  CheckpointAttributionAxis: 0
  CheckpointAttributionDirection: 0
  CurrentCheckPoint: {fileID: 0}
  IntroFadeDuration: 1
  OutroFadeDuration: 1
  RespawnDelay: 2
  LevelBounds:
    m_Center: {x: -66.05, y: -2.66, z: 0}
    m_Extent: {x: 19.6, y: 5.79, z: 5}
  OneWayLevelMode: 0
  NoGoingBackColliderSize: {x: 5, y: 5}
  NoGoingBackThreshold: 5
  NoGoingBackMinDistanceFromBounds: 10
  OneWayLevelKillMode: 0
--- !u!4 &420936718 stripped
Transform:
  m_PrefabParentObject: {fileID: 408230, guid: ce0837de5d2b5d140aea3195484dca8a, type: 2}
  m_PrefabInternal: {fileID: 2002450778}
--- !u!1001 &642709391
Prefab:
  m_ObjectHideFlags: 0
  serializedVersion: 2
  m_Modification:
    m_TransformParent: {fileID: 1494325979}
    m_Modifications:
    - target: {fileID: 471364, guid: f58a667c8217aaf42b28e20ef609767b, type: 2}
      propertyPath: m_LocalPosition.x
      value: -84.7
      objectReference: {fileID: 0}
    - target: {fileID: 471364, guid: f58a667c8217aaf42b28e20ef609767b, type: 2}
      propertyPath: m_LocalPosition.y
      value: -3
      objectReference: {fileID: 0}
    - target: {fileID: 471364, guid: f58a667c8217aaf42b28e20ef609767b, type: 2}
      propertyPath: m_LocalPosition.z
      value: -17.551758
      objectReference: {fileID: 0}
    - target: {fileID: 471364, guid: f58a667c8217aaf42b28e20ef609767b, type: 2}
      propertyPath: m_LocalRotation.x
      value: 0
      objectReference: {fileID: 0}
    - target: {fileID: 471364, guid: f58a667c8217aaf42b28e20ef609767b, type: 2}
      propertyPath: m_LocalRotation.y
      value: 0
      objectReference: {fileID: 0}
    - target: {fileID: 471364, guid: f58a667c8217aaf42b28e20ef609767b, type: 2}
      propertyPath: m_LocalRotation.z
      value: 0
      objectReference: {fileID: 0}
    - target: {fileID: 471364, guid: f58a667c8217aaf42b28e20ef609767b, type: 2}
      propertyPath: m_LocalRotation.w
      value: 1
      objectReference: {fileID: 0}
    - target: {fileID: 471364, guid: f58a667c8217aaf42b28e20ef609767b, type: 2}
      propertyPath: m_RootOrder
      value: 10
      objectReference: {fileID: 0}
    - target: {fileID: 145898, guid: f58a667c8217aaf42b28e20ef609767b, type: 2}
      propertyPath: m_Name
      value: Platform1000x100 (12)
      objectReference: {fileID: 0}
    m_RemovedComponents: []
  m_ParentPrefab: {fileID: 100100000, guid: f58a667c8217aaf42b28e20ef609767b, type: 2}
  m_IsPrefabParent: 0
--- !u!4 &642709392 stripped
Transform:
  m_PrefabParentObject: {fileID: 471364, guid: f58a667c8217aaf42b28e20ef609767b, type: 2}
  m_PrefabInternal: {fileID: 642709391}
--- !u!1001 &674179112
Prefab:
  m_ObjectHideFlags: 0
  serializedVersion: 2
  m_Modification:
    m_TransformParent: {fileID: 1494325979}
    m_Modifications:
    - target: {fileID: 471364, guid: f58a667c8217aaf42b28e20ef609767b, type: 2}
      propertyPath: m_LocalPosition.x
      value: -64.7
      objectReference: {fileID: 0}
    - target: {fileID: 471364, guid: f58a667c8217aaf42b28e20ef609767b, type: 2}
      propertyPath: m_LocalPosition.y
      value: -14.004799
      objectReference: {fileID: 0}
    - target: {fileID: 471364, guid: f58a667c8217aaf42b28e20ef609767b, type: 2}
      propertyPath: m_LocalPosition.z
      value: -17.551758
      objectReference: {fileID: 0}
    - target: {fileID: 471364, guid: f58a667c8217aaf42b28e20ef609767b, type: 2}
      propertyPath: m_LocalRotation.x
      value: 0
      objectReference: {fileID: 0}
    - target: {fileID: 471364, guid: f58a667c8217aaf42b28e20ef609767b, type: 2}
      propertyPath: m_LocalRotation.y
      value: 0
      objectReference: {fileID: 0}
    - target: {fileID: 471364, guid: f58a667c8217aaf42b28e20ef609767b, type: 2}
      propertyPath: m_LocalRotation.z
      value: 0
      objectReference: {fileID: 0}
    - target: {fileID: 471364, guid: f58a667c8217aaf42b28e20ef609767b, type: 2}
      propertyPath: m_LocalRotation.w
      value: 1
      objectReference: {fileID: 0}
    - target: {fileID: 471364, guid: f58a667c8217aaf42b28e20ef609767b, type: 2}
      propertyPath: m_RootOrder
      value: 3
      objectReference: {fileID: 0}
    - target: {fileID: 145898, guid: f58a667c8217aaf42b28e20ef609767b, type: 2}
      propertyPath: m_Name
      value: Platform1000x100 (7)
      objectReference: {fileID: 0}
    m_RemovedComponents: []
  m_ParentPrefab: {fileID: 100100000, guid: f58a667c8217aaf42b28e20ef609767b, type: 2}
  m_IsPrefabParent: 0
--- !u!1001 &704494586
Prefab:
  m_ObjectHideFlags: 0
  serializedVersion: 2
  m_Modification:
    m_TransformParent: {fileID: 1494325979}
    m_Modifications:
    - target: {fileID: 471364, guid: f58a667c8217aaf42b28e20ef609767b, type: 2}
      propertyPath: m_LocalPosition.x
      value: -74.7
      objectReference: {fileID: 0}
    - target: {fileID: 471364, guid: f58a667c8217aaf42b28e20ef609767b, type: 2}
      propertyPath: m_LocalPosition.y
      value: -3
      objectReference: {fileID: 0}
    - target: {fileID: 471364, guid: f58a667c8217aaf42b28e20ef609767b, type: 2}
      propertyPath: m_LocalPosition.z
      value: -17.551758
      objectReference: {fileID: 0}
    - target: {fileID: 471364, guid: f58a667c8217aaf42b28e20ef609767b, type: 2}
      propertyPath: m_LocalRotation.x
      value: 0
      objectReference: {fileID: 0}
    - target: {fileID: 471364, guid: f58a667c8217aaf42b28e20ef609767b, type: 2}
      propertyPath: m_LocalRotation.y
      value: 0
      objectReference: {fileID: 0}
    - target: {fileID: 471364, guid: f58a667c8217aaf42b28e20ef609767b, type: 2}
      propertyPath: m_LocalRotation.z
      value: 0
      objectReference: {fileID: 0}
    - target: {fileID: 471364, guid: f58a667c8217aaf42b28e20ef609767b, type: 2}
      propertyPath: m_LocalRotation.w
      value: 1
      objectReference: {fileID: 0}
    - target: {fileID: 471364, guid: f58a667c8217aaf42b28e20ef609767b, type: 2}
      propertyPath: m_RootOrder
      value: 7
      objectReference: {fileID: 0}
    - target: {fileID: 145898, guid: f58a667c8217aaf42b28e20ef609767b, type: 2}
      propertyPath: m_Name
      value: Platform1000x100 (9)
      objectReference: {fileID: 0}
    m_RemovedComponents: []
  m_ParentPrefab: {fileID: 100100000, guid: f58a667c8217aaf42b28e20ef609767b, type: 2}
  m_IsPrefabParent: 0
--- !u!4 &704494587 stripped
Transform:
  m_PrefabParentObject: {fileID: 471364, guid: f58a667c8217aaf42b28e20ef609767b, type: 2}
  m_PrefabInternal: {fileID: 704494586}
--- !u!1001 &778499797
Prefab:
  m_ObjectHideFlags: 0
  serializedVersion: 2
  m_Modification:
    m_TransformParent: {fileID: 1494325979}
    m_Modifications:
    - target: {fileID: 471364, guid: f58a667c8217aaf42b28e20ef609767b, type: 2}
      propertyPath: m_LocalPosition.x
      value: -94.7
      objectReference: {fileID: 0}
    - target: {fileID: 471364, guid: f58a667c8217aaf42b28e20ef609767b, type: 2}
      propertyPath: m_LocalPosition.y
      value: -3
      objectReference: {fileID: 0}
    - target: {fileID: 471364, guid: f58a667c8217aaf42b28e20ef609767b, type: 2}
      propertyPath: m_LocalPosition.z
      value: -17.551758
      objectReference: {fileID: 0}
    - target: {fileID: 471364, guid: f58a667c8217aaf42b28e20ef609767b, type: 2}
      propertyPath: m_LocalRotation.x
      value: 0
      objectReference: {fileID: 0}
    - target: {fileID: 471364, guid: f58a667c8217aaf42b28e20ef609767b, type: 2}
      propertyPath: m_LocalRotation.y
      value: 0
      objectReference: {fileID: 0}
    - target: {fileID: 471364, guid: f58a667c8217aaf42b28e20ef609767b, type: 2}
      propertyPath: m_LocalRotation.z
      value: 0
      objectReference: {fileID: 0}
    - target: {fileID: 471364, guid: f58a667c8217aaf42b28e20ef609767b, type: 2}
      propertyPath: m_LocalRotation.w
      value: 1
      objectReference: {fileID: 0}
    - target: {fileID: 471364, guid: f58a667c8217aaf42b28e20ef609767b, type: 2}
      propertyPath: m_RootOrder
      value: 8
      objectReference: {fileID: 0}
    - target: {fileID: 145898, guid: f58a667c8217aaf42b28e20ef609767b, type: 2}
      propertyPath: m_Name
      value: Platform1000x100 (10)
      objectReference: {fileID: 0}
    m_RemovedComponents: []
  m_ParentPrefab: {fileID: 100100000, guid: f58a667c8217aaf42b28e20ef609767b, type: 2}
  m_IsPrefabParent: 0
--- !u!4 &778499798 stripped
Transform:
  m_PrefabParentObject: {fileID: 471364, guid: f58a667c8217aaf42b28e20ef609767b, type: 2}
  m_PrefabInternal: {fileID: 778499797}
--- !u!4 &805796091 stripped
Transform:
  m_PrefabParentObject: {fileID: 471364, guid: f58a667c8217aaf42b28e20ef609767b, type: 2}
  m_PrefabInternal: {fileID: 1249012446}
--- !u!1 &862878780
GameObject:
  m_ObjectHideFlags: 0
  m_PrefabParentObject: {fileID: 131244, guid: 6777bab8262a63f499e2e97188b5da02, type: 2}
  m_PrefabInternal: {fileID: 0}
  serializedVersion: 5
  m_Component:
  - component: {fileID: 862878788}
  - component: {fileID: 862878787}
  - component: {fileID: 862878786}
  - component: {fileID: 862878785}
  - component: {fileID: 862878784}
  - component: {fileID: 862878783}
  m_Layer: 0
  m_Name: Regular Camera
  m_TagString: MainCamera
  m_Icon: {fileID: 0}
  m_NavMeshLayer: 0
  m_StaticEditorFlags: 0
  m_IsActive: 1
--- !u!114 &862878783
MonoBehaviour:
  m_ObjectHideFlags: 0
  m_PrefabParentObject: {fileID: 11482610, guid: 6777bab8262a63f499e2e97188b5da02,
    type: 2}
  m_PrefabInternal: {fileID: 0}
  m_GameObject: {fileID: 862878780}
  m_Enabled: 1
  m_EditorHideFlags: 0
  m_Script: {fileID: 11500000, guid: 71978be820ec44066856f2b1df7bd818, type: 3}
  m_Name: 
  m_EditorClassIdentifier: 
  MoveParallax: 1
--- !u!114 &862878784
MonoBehaviour:
  m_ObjectHideFlags: 0
  m_PrefabParentObject: {fileID: 11420014, guid: 6777bab8262a63f499e2e97188b5da02,
    type: 2}
  m_PrefabInternal: {fileID: 0}
  m_GameObject: {fileID: 862878780}
  m_Enabled: 1
  m_EditorHideFlags: 0
  m_Script: {fileID: 11500000, guid: a86ebad071ac44351826f05ad27db3a4, type: 3}
  m_Name: 
  m_EditorClassIdentifier: 
  HorizontalLookDistance: 3
  CameraOffset: {x: 1, y: 1, z: 0}
  LookAheadTrigger: 0.1
  ManualUpDownLookDistance: 3
  ResetSpeed: 0.5
  CameraSpeed: 0.3
  MinimumZoom: 5
  MaximumZoom: 5
  ZoomSpeed: 0.4
  PixelPerfect: 0
  ReferenceVerticalResolution: 768
  ReferencePixelsPerUnit: 32
  EnableEffectsOnMobile: 0
--- !u!81 &862878785
AudioListener:
  m_ObjectHideFlags: 0
  m_PrefabParentObject: {fileID: 8121842, guid: 6777bab8262a63f499e2e97188b5da02,
    type: 2}
  m_PrefabInternal: {fileID: 0}
  m_GameObject: {fileID: 862878780}
  m_Enabled: 1
--- !u!124 &862878786
Behaviour:
  m_ObjectHideFlags: 0
  m_PrefabParentObject: {fileID: 12453608, guid: 6777bab8262a63f499e2e97188b5da02,
    type: 2}
  m_PrefabInternal: {fileID: 0}
  m_GameObject: {fileID: 862878780}
  m_Enabled: 1
--- !u!20 &862878787
Camera:
  m_ObjectHideFlags: 0
  m_PrefabParentObject: {fileID: 2022988, guid: 6777bab8262a63f499e2e97188b5da02,
    type: 2}
  m_PrefabInternal: {fileID: 0}
  m_GameObject: {fileID: 862878780}
  m_Enabled: 1
  serializedVersion: 2
  m_ClearFlags: 1
  m_BackGroundColor: {r: 0.5254902, g: 0.5254902, b: 0.5254902, a: 1}
  m_NormalizedViewPortRect:
    serializedVersion: 2
    x: 0
    y: 0
    width: 1
    height: 1
  near clip plane: 0.3
  far clip plane: 1000
  field of view: 60
  orthographic: 1
  orthographic size: 5
  m_Depth: -1
  m_CullingMask:
    serializedVersion: 2
    m_Bits: 4294967295
  m_RenderingPath: -1
  m_TargetTexture: {fileID: 0}
  m_TargetDisplay: 0
  m_TargetEye: 3
  m_HDR: 0
  m_AllowMSAA: 1
  m_ForceIntoRT: 0
  m_OcclusionCulling: 1
  m_StereoConvergence: 10
  m_StereoSeparation: 0.022
  m_StereoMirrorMode: 0
--- !u!4 &862878788
Transform:
  m_ObjectHideFlags: 0
  m_PrefabParentObject: {fileID: 451582, guid: 6777bab8262a63f499e2e97188b5da02, type: 2}
  m_PrefabInternal: {fileID: 0}
  m_GameObject: {fileID: 862878780}
  m_LocalRotation: {x: 0, y: 0, z: 0, w: 1}
  m_LocalPosition: {x: -74.93, y: -3.2, z: -10}
  m_LocalScale: {x: 1, y: 1, z: 1}
  m_Children: []
  m_Father: {fileID: 0}
  m_RootOrder: 3
  m_LocalEulerAnglesHint: {x: 0, y: 0, z: 0}
--- !u!1 &909865713 stripped
GameObject:
  m_PrefabParentObject: {fileID: 100000, guid: 7a343ffc127af4b41b1e509d55d21956, type: 2}
  m_PrefabInternal: {fileID: 920433731}
--- !u!61 &909865714
BoxCollider2D:
  m_ObjectHideFlags: 0
  m_PrefabParentObject: {fileID: 0}
  m_PrefabInternal: {fileID: 0}
  m_GameObject: {fileID: 909865713}
  m_Enabled: 1
  m_Density: 1
  m_Material: {fileID: 0}
  m_IsTrigger: 0
  m_UsedByEffector: 0
  m_UsedByComposite: 0
  m_Offset: {x: 0, y: 0}
  m_SpriteTilingProperty:
    border: {x: 0, y: 0, z: 0, w: 0}
    pivot: {x: 0, y: 0}
    oldSize: {x: 0, y: 0}
    newSize: {x: 0, y: 0}
    adaptiveTilingThreshold: 0
    drawMode: 0
    adaptiveTiling: 0
  m_AutoTiling: 0
  serializedVersion: 2
  m_Size: {x: 1, y: 1}
  m_EdgeRadius: 0
--- !u!1001 &920433731
Prefab:
  m_ObjectHideFlags: 0
  serializedVersion: 2
  m_Modification:
    m_TransformParent: {fileID: 1858949006}
    m_Modifications:
    - target: {fileID: 400000, guid: 7a343ffc127af4b41b1e509d55d21956, type: 2}
      propertyPath: m_LocalPosition.x
      value: -93.45
      objectReference: {fileID: 0}
    - target: {fileID: 400000, guid: 7a343ffc127af4b41b1e509d55d21956, type: 2}
      propertyPath: m_LocalPosition.y
      value: -10.82
      objectReference: {fileID: 0}
    - target: {fileID: 400000, guid: 7a343ffc127af4b41b1e509d55d21956, type: 2}
      propertyPath: m_LocalPosition.z
      value: 0
      objectReference: {fileID: 0}
    - target: {fileID: 400000, guid: 7a343ffc127af4b41b1e509d55d21956, type: 2}
      propertyPath: m_LocalRotation.x
      value: 0
      objectReference: {fileID: 0}
    - target: {fileID: 400000, guid: 7a343ffc127af4b41b1e509d55d21956, type: 2}
      propertyPath: m_LocalRotation.y
      value: 0
      objectReference: {fileID: 0}
    - target: {fileID: 400000, guid: 7a343ffc127af4b41b1e509d55d21956, type: 2}
      propertyPath: m_LocalRotation.z
      value: 0
      objectReference: {fileID: 0}
    - target: {fileID: 400000, guid: 7a343ffc127af4b41b1e509d55d21956, type: 2}
      propertyPath: m_LocalRotation.w
      value: 1
      objectReference: {fileID: 0}
    - target: {fileID: 400000, guid: 7a343ffc127af4b41b1e509d55d21956, type: 2}
      propertyPath: m_RootOrder
      value: 1
      objectReference: {fileID: 0}
    m_RemovedComponents: []
  m_ParentPrefab: {fileID: 100100000, guid: 7a343ffc127af4b41b1e509d55d21956, type: 2}
  m_IsPrefabParent: 0
--- !u!1 &1072031669
GameObject:
  m_ObjectHideFlags: 0
  m_PrefabParentObject: {fileID: 0}
  m_PrefabInternal: {fileID: 0}
  serializedVersion: 5
  m_Component:
  - component: {fileID: 1072031673}
  - component: {fileID: 1072031672}
  - component: {fileID: 1072031671}
  - component: {fileID: 1072031670}
  m_Layer: 22
  m_Name: Background
  m_TagString: Untagged
  m_Icon: {fileID: 0}
  m_NavMeshLayer: 0
  m_StaticEditorFlags: 0
  m_IsActive: 1
--- !u!23 &1072031670
MeshRenderer:
  m_ObjectHideFlags: 0
  m_PrefabParentObject: {fileID: 0}
  m_PrefabInternal: {fileID: 0}
  m_GameObject: {fileID: 1072031669}
  m_Enabled: 1
  m_CastShadows: 1
  m_ReceiveShadows: 1
  m_MotionVectors: 1
  m_LightProbeUsage: 1
  m_ReflectionProbeUsage: 1
  m_Materials:
  - {fileID: 2100000, guid: 133b0ff1159ab7b4298b20c9f9fb75fa, type: 2}
  m_StaticBatchInfo:
    firstSubMesh: 0
    subMeshCount: 0
  m_StaticBatchRoot: {fileID: 0}
  m_ProbeAnchor: {fileID: 0}
  m_LightProbeVolumeOverride: {fileID: 0}
  m_ScaleInLightmap: 1
  m_PreserveUVs: 1
  m_IgnoreNormalsForChartDetection: 0
  m_ImportantGI: 0
  m_SelectedEditorRenderState: 3
  m_MinimumChartSize: 4
  m_AutoUVMaxDistance: 0.5
  m_AutoUVMaxAngle: 89
  m_LightmapParameters: {fileID: 0}
  m_SortingLayerID: -1620175883
  m_SortingLayer: -1
  m_SortingOrder: 0
--- !u!64 &1072031671
MeshCollider:
  m_ObjectHideFlags: 0
  m_PrefabParentObject: {fileID: 0}
  m_PrefabInternal: {fileID: 0}
  m_GameObject: {fileID: 1072031669}
  m_Material: {fileID: 0}
  m_IsTrigger: 0
  m_Enabled: 1
  serializedVersion: 2
  m_Convex: 0
  m_InflateMesh: 0
  m_SkinWidth: 0.01
  m_Mesh: {fileID: 10210, guid: 0000000000000000e000000000000000, type: 0}
--- !u!33 &1072031672
MeshFilter:
  m_ObjectHideFlags: 0
  m_PrefabParentObject: {fileID: 0}
  m_PrefabInternal: {fileID: 0}
  m_GameObject: {fileID: 1072031669}
  m_Mesh: {fileID: 10210, guid: 0000000000000000e000000000000000, type: 0}
--- !u!4 &1072031673
Transform:
  m_ObjectHideFlags: 0
  m_PrefabParentObject: {fileID: 0}
  m_PrefabInternal: {fileID: 0}
  m_GameObject: {fileID: 1072031669}
  m_LocalRotation: {x: 0, y: 0, z: 0, w: 1}
  m_LocalPosition: {x: 36.43915, y: -7.664153, z: -14.001758}
  m_LocalScale: {x: 512, y: 512, z: 1}
  m_Children: []
  m_Father: {fileID: 1494325979}
  m_RootOrder: 0
  m_LocalEulerAnglesHint: {x: 0, y: 0, z: 0}
--- !u!114 &1132044354 stripped
MonoBehaviour:
  m_PrefabParentObject: {fileID: 11400000, guid: 7a343ffc127af4b41b1e509d55d21956,
    type: 2}
  m_PrefabInternal: {fileID: 920433731}
  m_Script: {fileID: 11500000, guid: 923a01d66c4618446abb082250646478, type: 3}
--- !u!1001 &1249012446
Prefab:
  m_ObjectHideFlags: 0
  serializedVersion: 2
  m_Modification:
    m_TransformParent: {fileID: 1494325979}
    m_Modifications:
    - target: {fileID: 471364, guid: f58a667c8217aaf42b28e20ef609767b, type: 2}
      propertyPath: m_LocalPosition.x
      value: -94.7
      objectReference: {fileID: 0}
    - target: {fileID: 471364, guid: f58a667c8217aaf42b28e20ef609767b, type: 2}
      propertyPath: m_LocalPosition.y
      value: -14
      objectReference: {fileID: 0}
    - target: {fileID: 471364, guid: f58a667c8217aaf42b28e20ef609767b, type: 2}
      propertyPath: m_LocalPosition.z
      value: -17.551758
      objectReference: {fileID: 0}
    - target: {fileID: 471364, guid: f58a667c8217aaf42b28e20ef609767b, type: 2}
      propertyPath: m_LocalRotation.x
      value: 0
      objectReference: {fileID: 0}
    - target: {fileID: 471364, guid: f58a667c8217aaf42b28e20ef609767b, type: 2}
      propertyPath: m_LocalRotation.y
      value: 0
      objectReference: {fileID: 0}
    - target: {fileID: 471364, guid: f58a667c8217aaf42b28e20ef609767b, type: 2}
      propertyPath: m_LocalRotation.z
      value: 0
      objectReference: {fileID: 0}
    - target: {fileID: 471364, guid: f58a667c8217aaf42b28e20ef609767b, type: 2}
      propertyPath: m_LocalRotation.w
      value: 1
      objectReference: {fileID: 0}
    - target: {fileID: 471364, guid: f58a667c8217aaf42b28e20ef609767b, type: 2}
      propertyPath: m_RootOrder
      value: 1
      objectReference: {fileID: 0}
    - target: {fileID: 145898, guid: f58a667c8217aaf42b28e20ef609767b, type: 2}
      propertyPath: m_Name
      value: Platform1000x100 (5)
      objectReference: {fileID: 0}
    m_RemovedComponents: []
  m_ParentPrefab: {fileID: 100100000, guid: f58a667c8217aaf42b28e20ef609767b, type: 2}
  m_IsPrefabParent: 0
--- !u!1001 &1270509431
Prefab:
  m_ObjectHideFlags: 0
  serializedVersion: 2
  m_Modification:
    m_TransformParent: {fileID: 1494325979}
    m_Modifications:
    - target: {fileID: 471364, guid: f58a667c8217aaf42b28e20ef609767b, type: 2}
      propertyPath: m_LocalPosition.x
      value: -74.7
      objectReference: {fileID: 0}
    - target: {fileID: 471364, guid: f58a667c8217aaf42b28e20ef609767b, type: 2}
      propertyPath: m_LocalPosition.y
      value: -14
      objectReference: {fileID: 0}
    - target: {fileID: 471364, guid: f58a667c8217aaf42b28e20ef609767b, type: 2}
      propertyPath: m_LocalPosition.z
      value: -17.551758
      objectReference: {fileID: 0}
    - target: {fileID: 471364, guid: f58a667c8217aaf42b28e20ef609767b, type: 2}
      propertyPath: m_LocalRotation.x
      value: 0
      objectReference: {fileID: 0}
    - target: {fileID: 471364, guid: f58a667c8217aaf42b28e20ef609767b, type: 2}
      propertyPath: m_LocalRotation.y
      value: 0
      objectReference: {fileID: 0}
    - target: {fileID: 471364, guid: f58a667c8217aaf42b28e20ef609767b, type: 2}
      propertyPath: m_LocalRotation.z
      value: 0
      objectReference: {fileID: 0}
    - target: {fileID: 471364, guid: f58a667c8217aaf42b28e20ef609767b, type: 2}
      propertyPath: m_LocalRotation.w
      value: 1
      objectReference: {fileID: 0}
    - target: {fileID: 471364, guid: f58a667c8217aaf42b28e20ef609767b, type: 2}
      propertyPath: m_RootOrder
      value: 4
      objectReference: {fileID: 0}
    - target: {fileID: 145898, guid: f58a667c8217aaf42b28e20ef609767b, type: 2}
      propertyPath: m_Name
      value: Platform1000x100 (8)
      objectReference: {fileID: 0}
    m_RemovedComponents: []
  m_ParentPrefab: {fileID: 100100000, guid: f58a667c8217aaf42b28e20ef609767b, type: 2}
  m_IsPrefabParent: 0
--- !u!4 &1272944680 stripped
Transform:
  m_PrefabParentObject: {fileID: 471364, guid: f58a667c8217aaf42b28e20ef609767b, type: 2}
  m_PrefabInternal: {fileID: 1270509431}
--- !u!4 &1370723985 stripped
Transform:
  m_PrefabParentObject: {fileID: 471364, guid: f58a667c8217aaf42b28e20ef609767b, type: 2}
  m_PrefabInternal: {fileID: 144675934}
--- !u!1001 &1398692770
Prefab:
  m_ObjectHideFlags: 0
  serializedVersion: 2
  m_Modification:
    m_TransformParent: {fileID: 1494325979}
    m_Modifications:
    - target: {fileID: 471364, guid: f58a667c8217aaf42b28e20ef609767b, type: 2}
      propertyPath: m_LocalPosition.x
      value: -64.7
      objectReference: {fileID: 0}
    - target: {fileID: 471364, guid: f58a667c8217aaf42b28e20ef609767b, type: 2}
      propertyPath: m_LocalPosition.y
      value: -3
      objectReference: {fileID: 0}
    - target: {fileID: 471364, guid: f58a667c8217aaf42b28e20ef609767b, type: 2}
      propertyPath: m_LocalPosition.z
      value: -17.551758
      objectReference: {fileID: 0}
    - target: {fileID: 471364, guid: f58a667c8217aaf42b28e20ef609767b, type: 2}
      propertyPath: m_LocalRotation.x
      value: 0
      objectReference: {fileID: 0}
    - target: {fileID: 471364, guid: f58a667c8217aaf42b28e20ef609767b, type: 2}
      propertyPath: m_LocalRotation.y
      value: 0
      objectReference: {fileID: 0}
    - target: {fileID: 471364, guid: f58a667c8217aaf42b28e20ef609767b, type: 2}
      propertyPath: m_LocalRotation.z
      value: 0
      objectReference: {fileID: 0}
    - target: {fileID: 471364, guid: f58a667c8217aaf42b28e20ef609767b, type: 2}
      propertyPath: m_LocalRotation.w
      value: 1
      objectReference: {fileID: 0}
    - target: {fileID: 471364, guid: f58a667c8217aaf42b28e20ef609767b, type: 2}
      propertyPath: m_RootOrder
      value: 9
      objectReference: {fileID: 0}
    - target: {fileID: 145898, guid: f58a667c8217aaf42b28e20ef609767b, type: 2}
      propertyPath: m_Name
      value: Platform1000x100 (11)
      objectReference: {fileID: 0}
    m_RemovedComponents: []
  m_ParentPrefab: {fileID: 100100000, guid: f58a667c8217aaf42b28e20ef609767b, type: 2}
  m_IsPrefabParent: 0
--- !u!4 &1398692771 stripped
Transform:
  m_PrefabParentObject: {fileID: 471364, guid: f58a667c8217aaf42b28e20ef609767b, type: 2}
  m_PrefabInternal: {fileID: 1398692770}
--- !u!1 &1494325978
GameObject:
  m_ObjectHideFlags: 0
  m_PrefabParentObject: {fileID: 0}
  m_PrefabInternal: {fileID: 0}
  serializedVersion: 5
  m_Component:
  - component: {fileID: 1494325979}
  m_Layer: 0
  m_Name: OptionalPlatforms
  m_TagString: Untagged
  m_Icon: {fileID: 0}
  m_NavMeshLayer: 0
  m_StaticEditorFlags: 0
  m_IsActive: 1
--- !u!4 &1494325979
Transform:
  m_ObjectHideFlags: 0
  m_PrefabParentObject: {fileID: 0}
  m_PrefabInternal: {fileID: 0}
  m_GameObject: {fileID: 1494325978}
  m_LocalRotation: {x: 0, y: 0, z: 0, w: 1}
  m_LocalPosition: {x: 0.46084976, y: -1.1358471, z: 17.551758}
  m_LocalScale: {x: 1, y: 1, z: 1}
  m_Children:
  - {fileID: 1072031673}
  - {fileID: 805796091}
  - {fileID: 1370723985}
  - {fileID: 2137779173}
  - {fileID: 1272944680}
  - {fileID: 420936718}
  - {fileID: 2010980462}
  - {fileID: 704494587}
  - {fileID: 778499798}
  - {fileID: 1398692771}
  - {fileID: 642709392}
  m_Father: {fileID: 1858949006}
  m_RootOrder: 0
  m_LocalEulerAnglesHint: {x: 0, y: 0, z: 0}
--- !u!4 &1505988468 stripped
Transform:
  m_PrefabParentObject: {fileID: 400000, guid: 7a343ffc127af4b41b1e509d55d21956, type: 2}
  m_PrefabInternal: {fileID: 920433731}
--- !u!1001 &1674947919
Prefab:
  m_ObjectHideFlags: 0
  serializedVersion: 2
  m_Modification:
    m_TransformParent: {fileID: 0}
    m_Modifications:
    - target: {fileID: 400002, guid: ace2d4bf56f98df4196ff81845a465d7, type: 2}
      propertyPath: m_LocalPosition.x
      value: -140.2
      objectReference: {fileID: 0}
    - target: {fileID: 400002, guid: ace2d4bf56f98df4196ff81845a465d7, type: 2}
      propertyPath: m_LocalPosition.y
      value: 2.5
      objectReference: {fileID: 0}
    - target: {fileID: 400002, guid: ace2d4bf56f98df4196ff81845a465d7, type: 2}
      propertyPath: m_LocalPosition.z
      value: -28.6
      objectReference: {fileID: 0}
    - target: {fileID: 400002, guid: ace2d4bf56f98df4196ff81845a465d7, type: 2}
      propertyPath: m_LocalRotation.x
      value: 0
      objectReference: {fileID: 0}
    - target: {fileID: 400002, guid: ace2d4bf56f98df4196ff81845a465d7, type: 2}
      propertyPath: m_LocalRotation.y
      value: 0
      objectReference: {fileID: 0}
    - target: {fileID: 400002, guid: ace2d4bf56f98df4196ff81845a465d7, type: 2}
      propertyPath: m_LocalRotation.z
      value: 0
      objectReference: {fileID: 0}
    - target: {fileID: 400002, guid: ace2d4bf56f98df4196ff81845a465d7, type: 2}
      propertyPath: m_LocalRotation.w
      value: 1
      objectReference: {fileID: 0}
    - target: {fileID: 400002, guid: ace2d4bf56f98df4196ff81845a465d7, type: 2}
      propertyPath: m_RootOrder
      value: 1
      objectReference: {fileID: 0}
    - target: {fileID: 100004, guid: ace2d4bf56f98df4196ff81845a465d7, type: 2}
      propertyPath: m_IsActive
      value: 1
      objectReference: {fileID: 0}
    m_RemovedComponents: []
  m_ParentPrefab: {fileID: 100100000, guid: ace2d4bf56f98df4196ff81845a465d7, type: 2}
  m_IsPrefabParent: 0
--- !u!1001 &1697003742
Prefab:
  m_ObjectHideFlags: 0
  serializedVersion: 2
  m_Modification:
    m_TransformParent: {fileID: 0}
    m_Modifications:
    - target: {fileID: 490956, guid: 6059d977d1f210348bfbe1a82f4f9883, type: 2}
      propertyPath: m_LocalPosition.x
      value: -107.3
      objectReference: {fileID: 0}
    - target: {fileID: 490956, guid: 6059d977d1f210348bfbe1a82f4f9883, type: 2}
      propertyPath: m_LocalPosition.y
      value: 9.6
      objectReference: {fileID: 0}
    - target: {fileID: 490956, guid: 6059d977d1f210348bfbe1a82f4f9883, type: 2}
      propertyPath: m_LocalPosition.z
      value: 100
      objectReference: {fileID: 0}
    - target: {fileID: 490956, guid: 6059d977d1f210348bfbe1a82f4f9883, type: 2}
      propertyPath: m_LocalRotation.x
      value: 0
      objectReference: {fileID: 0}
    - target: {fileID: 490956, guid: 6059d977d1f210348bfbe1a82f4f9883, type: 2}
      propertyPath: m_LocalRotation.y
      value: 0
      objectReference: {fileID: 0}
    - target: {fileID: 490956, guid: 6059d977d1f210348bfbe1a82f4f9883, type: 2}
      propertyPath: m_LocalRotation.z
      value: 0
      objectReference: {fileID: 0}
    - target: {fileID: 490956, guid: 6059d977d1f210348bfbe1a82f4f9883, type: 2}
      propertyPath: m_LocalRotation.w
      value: 1
      objectReference: {fileID: 0}
    - target: {fileID: 490956, guid: 6059d977d1f210348bfbe1a82f4f9883, type: 2}
      propertyPath: m_RootOrder
      value: 0
      objectReference: {fileID: 0}
    m_RemovedComponents: []
  m_ParentPrefab: {fileID: 100100000, guid: 6059d977d1f210348bfbe1a82f4f9883, type: 2}
  m_IsPrefabParent: 0
--- !u!1001 &1736196670
Prefab:
  m_ObjectHideFlags: 0
  serializedVersion: 2
  m_Modification:
    m_TransformParent: {fileID: 1494325979}
    m_Modifications:
    - target: {fileID: 408230, guid: ce0837de5d2b5d140aea3195484dca8a, type: 2}
      propertyPath: m_LocalPosition.x
      value: -99.2
      objectReference: {fileID: 0}
    - target: {fileID: 408230, guid: ce0837de5d2b5d140aea3195484dca8a, type: 2}
      propertyPath: m_LocalPosition.y
      value: -8.5
      objectReference: {fileID: 0}
    - target: {fileID: 408230, guid: ce0837de5d2b5d140aea3195484dca8a, type: 2}
      propertyPath: m_LocalPosition.z
      value: -17.551758
      objectReference: {fileID: 0}
    - target: {fileID: 408230, guid: ce0837de5d2b5d140aea3195484dca8a, type: 2}
      propertyPath: m_LocalRotation.x
      value: 0
      objectReference: {fileID: 0}
    - target: {fileID: 408230, guid: ce0837de5d2b5d140aea3195484dca8a, type: 2}
      propertyPath: m_LocalRotation.y
      value: 0
      objectReference: {fileID: 0}
    - target: {fileID: 408230, guid: ce0837de5d2b5d140aea3195484dca8a, type: 2}
      propertyPath: m_LocalRotation.z
      value: 0
      objectReference: {fileID: 0}
    - target: {fileID: 408230, guid: ce0837de5d2b5d140aea3195484dca8a, type: 2}
      propertyPath: m_LocalRotation.w
      value: 1
      objectReference: {fileID: 0}
    - target: {fileID: 408230, guid: ce0837de5d2b5d140aea3195484dca8a, type: 2}
      propertyPath: m_RootOrder
      value: 6
      objectReference: {fileID: 0}
    - target: {fileID: 108046, guid: ce0837de5d2b5d140aea3195484dca8a, type: 2}
      propertyPath: m_Name
      value: Platform100x1000 (6)
      objectReference: {fileID: 0}
    m_RemovedComponents: []
  m_ParentPrefab: {fileID: 100100000, guid: ce0837de5d2b5d140aea3195484dca8a, type: 2}
  m_IsPrefabParent: 0
--- !u!1 &1858949005
GameObject:
  m_ObjectHideFlags: 0
  m_PrefabParentObject: {fileID: 0}
  m_PrefabInternal: {fileID: 0}
  serializedVersion: 5
  m_Component:
  - component: {fileID: 1858949006}
  m_Layer: 0
  m_Name: Level
  m_TagString: Untagged
  m_Icon: {fileID: 0}
  m_NavMeshLayer: 0
  m_StaticEditorFlags: 0
  m_IsActive: 1
--- !u!4 &1858949006
Transform:
  m_ObjectHideFlags: 0
  m_PrefabParentObject: {fileID: 0}
  m_PrefabInternal: {fileID: 0}
  m_GameObject: {fileID: 1858949005}
  m_LocalRotation: {x: 0, y: 0, z: 0, w: 1}
  m_LocalPosition: {x: 13.3, y: 7, z: 0}
  m_LocalScale: {x: 1, y: 1, z: 1}
  m_Children:
  - {fileID: 1494325979}
  - {fileID: 1505988468}
  m_Father: {fileID: 0}
  m_RootOrder: 4
  m_LocalEulerAnglesHint: {x: 0, y: 0, z: 0}
--- !u!1001 &2002450778
Prefab:
  m_ObjectHideFlags: 0
  serializedVersion: 2
  m_Modification:
    m_TransformParent: {fileID: 1494325979}
    m_Modifications:
    - target: {fileID: 408230, guid: ce0837de5d2b5d140aea3195484dca8a, type: 2}
      propertyPath: m_LocalPosition.x
      value: -60.2
      objectReference: {fileID: 0}
    - target: {fileID: 408230, guid: ce0837de5d2b5d140aea3195484dca8a, type: 2}
      propertyPath: m_LocalPosition.y
      value: -8.5
      objectReference: {fileID: 0}
    - target: {fileID: 408230, guid: ce0837de5d2b5d140aea3195484dca8a, type: 2}
      propertyPath: m_LocalPosition.z
      value: -17.551758
      objectReference: {fileID: 0}
    - target: {fileID: 408230, guid: ce0837de5d2b5d140aea3195484dca8a, type: 2}
      propertyPath: m_LocalRotation.x
      value: 0
      objectReference: {fileID: 0}
    - target: {fileID: 408230, guid: ce0837de5d2b5d140aea3195484dca8a, type: 2}
      propertyPath: m_LocalRotation.y
      value: 0
      objectReference: {fileID: 0}
    - target: {fileID: 408230, guid: ce0837de5d2b5d140aea3195484dca8a, type: 2}
      propertyPath: m_LocalRotation.z
      value: 0
      objectReference: {fileID: 0}
    - target: {fileID: 408230, guid: ce0837de5d2b5d140aea3195484dca8a, type: 2}
      propertyPath: m_LocalRotation.w
      value: 1
      objectReference: {fileID: 0}
    - target: {fileID: 408230, guid: ce0837de5d2b5d140aea3195484dca8a, type: 2}
      propertyPath: m_RootOrder
      value: 5
      objectReference: {fileID: 0}
    - target: {fileID: 108046, guid: ce0837de5d2b5d140aea3195484dca8a, type: 2}
      propertyPath: m_Name
      value: Platform100x1000 (2)
      objectReference: {fileID: 0}
    m_RemovedComponents: []
  m_ParentPrefab: {fileID: 100100000, guid: ce0837de5d2b5d140aea3195484dca8a, type: 2}
  m_IsPrefabParent: 0
--- !u!4 &2010980462 stripped
Transform:
  m_PrefabParentObject: {fileID: 408230, guid: ce0837de5d2b5d140aea3195484dca8a, type: 2}
  m_PrefabInternal: {fileID: 1736196670}
--- !u!4 &2137779173 stripped
Transform:
  m_PrefabParentObject: {fileID: 471364, guid: f58a667c8217aaf42b28e20ef609767b, type: 2}
  m_PrefabInternal: {fileID: 674179112}
